9 データハンドリング | いつか役に立つかもしれない資料
…
「manufacturerが"audi"」でもなく「modelが"a4"」でもない行を抽出したい場合は、条件を!()で囲めば良い。!()は論理値を反転させる演算子である29。

mpg %>%
  filter(!(manufacturer == "audi" | model == "a4"))

## # A tibble: 216 x 11
##    manufacturer model displ  year   cyl trans drv     cty   hwy fl    class
##    <chr>        <chr> <dbl> <int> <int> <chr> <chr> <int> <int> <chr> <chr>
##  1 chevrolet    c150…   5.3  2008     8 auto… r        14    20 r     suv  
##  2 chevrolet    c150…   5.3  2008     8 auto… r        11    15 e     suv  
##  3 chevrolet    c150…   5.3  2008     8 auto… r        14    20 r     suv  
##  4 chevrolet    c150…   5.7  1999     8 auto… r        13    17 r     suv  
##  5 chevrolet    c150…   6    2008     8 auto… r        12    17 r     suv  
##  6 chevrolet    corv…   5.7  1999     8 manu… r        16    26 p     2sea…
##  7 chevrolet    corv…   5.7  1999     8 auto… r        15    23 p     2sea…
##  8 chevrolet    corv…   6.2  2008     8 manu… r        16    26 p     2sea…
##  9 chevrolet    corv…   6.2  2008     8 auto… r        15    25 p     2sea…
## 10 chevrolet    corv…   7    2008     8 manu… r        15    24 p     2sea…
## # … with 206 more rows

9.2.2 データの列で絞り込み

では、列方向で抽出するにはどうすれば良いのだろうか？　たとえば、mpgで言えば、manufacturerとmodelとtransとdrvの列を抽出したいというような状況である。

このようなときは、select(抽出したい列名)を使えば良い。抽出したい列名は、1つだけに限らず、何個書いても問題ない。

mpg %>%
  select(manufacturer, model, trans, drv) # 4つの列を抽出

## # A tibble: 234 x 4
##    manufacturer model      trans      drv  
##    <chr>        <chr>      <chr>      <chr>
##  1 audi         a4         auto(l5)   f    
##  2 audi         a4         manual(m5) f    
##  3 audi         a4         manual(m6) f    
##  4 audi         a4         auto(av)   f    
##  5 audi         a4         auto(l5)   f    
##  6 audi         a4         manual(m5) f    
##  7 audi         a4         auto(av)   f    
##  8 audi         a4 quattro manual(m5) 4    
##  9 audi         a4 quattro auto(l5)   4    
## 10 audi         a4 quattro manual(m6) 4    
## # … with 224 more rows

select()では、「A列からG列まで」というような抽出も可能である。

mpg %>%
  select(manufacturer:drv) # manufacturerからdrvまでの7列を抽出

## # A tibble: 234 x 7
##    manufacturer model      displ  year   cyl trans      drv  
##    <chr>        <chr>      <dbl> <int> <int> <chr>      <chr>
##  1 audi         a4           1.8  1999     4 auto(l5)   f    
##  2 audi         a4           1.8  1999     4 manual(m5) f    
##  3 audi         a4           2    2008     4 manual(m6) f    
##  4 audi         a4           2    2008     4 auto(av)   f    
##  5 audi         a4           2.8  1999     6 auto(l5)   f    
##  6 audi         a4           2.8  1999     6 manual(m5) f    
##  7 audi         a4           3.1  2008     6 auto(av)   f    
##  8 audi         a4 quattro   1.8  1999     4 manual(m5) 4    
##  9 audi         a4 quattro   1.8  1999     4 auto(l5)   4    
## 10 audi         a4 quattro   2    2008     4 manual(m6) 4    
## # … with 224 more rows

指定した列を除外することもできるselect(-列名)とすれば良い。

mpg %>%
  select(-manufacturer) # manufacturerを除外

## # A tibble: 234 x 10
##    model      displ  year   cyl trans      drv     cty   hwy fl    class  
##    <chr>      <dbl> <int> <int> <chr>      <chr> <int> <int> <chr> <chr>  
##  1 a4           1.8  1999     4 auto(l5)   f        18    29 p     compact
##  2 a4           1.8  1999     4 manual(m5) f        21    29 p     compact
##  3 a4           2    2008     4 manual(m6) f        20    31 p     compact
##  4 a4           2    2008     4 auto(av)   f        21    30 p     compact
##  5 a4           2.8  1999     6 auto(l5)   f        16    26 p     compact
##  6 a4           2.8  1999     6 manual(m5) f        18    26 p     compact
##  7 a4           3.1  2008     6 auto(av)   f        18    27 p     compact
##  8 a4 quattro   1.8  1999     4 manual(m5) 4        18    26 p     compact
##  9 a4 quattro   1.8  1999     4 auto(l5)   4        16    25 p     compact
## 10 a4 quattro   2    2008     4 manual(m6) 4        20    28 p     compact
## # … with 224 more rows

9.3 追加

9.3.1 新しい列を追加

データフレームに新しい列を作るには、mutate(新しく作る列名 = 値)を使えば良い。

mpg %>%
  mutate(one = 1) # 最後尾にoneという列を追加した

## # A tibble: 234 x 12
##    manufacturer model displ  year   cyl trans drv     cty   hwy fl    class
##    <chr>        <chr> <dbl> <int> <int> <chr> <chr> <int> <int> <chr> <chr>
##  1 audi         a4      1.8  1999     4 auto… f        18    29 p     comp…
##  2 audi         a4      1.8  1999     4 manu… f        21    29 p     comp…
##  3 audi         a4      2    2008     4 manu… f        20    31 p     comp…
##  4 audi         a4      2    2008     4 auto… f        21    30 p     comp…
##  5 audi         a4      2.8  1999     6 auto… f        16    26 p     comp…
##  6 audi         a4      2.8  1999     6 manu… f        18    26 p     comp…
##  7 audi         a4      3.1  2008     6 auto… f        18    27 p     comp…
##  8 audi         a4 q…   1.8  1999     4 manu… 4        18    26 p     comp…
##  9 audi         a4 q…   1.8  1999     4 auto… 4        16    25 p     comp…
## 10 audi         a4 q…   2    2008     4 manu… 4        20    28 p     comp…
## # … with 224 more rows, and 1 more variable: one <dbl>

上の例ではoneという列を作り、すべての行を1で埋めたが、これはあまり実践的ではない。

mutate()が力を発揮するのは、特にif_else()という関数と組み合わせたときである。たとえば、displ（排気量）の値が3未満ならgood、3以上ならbadという列（engine）を作りたい場合、以下のように書けば良い。

mpg %>%
  mutate(engine = if_else(displ < 3, "good", "bad"))

## # A tibble: 234 x 12
##    manufacturer model displ  year   cyl trans drv     cty   hwy fl    class
##    <chr>        <chr> <dbl> <int> <int> <chr> <chr> <int> <int> <chr> <chr>
##  1 audi         a4      1.8  1999     4 auto… f        18    29 p     comp…
##  2 audi         a4      1.8  1999     4 manu… f        21    29 p     comp…
##  3 audi         a4      2    2008     4 manu… f        20    31 p     comp…
##  4 audi         a4      2    2008     4 auto… f        21    30 p     comp…
##  5 audi         a4      2.8  1999     6 auto… f        16    26 p     comp…
##  6 audi         a4      2.8  1999     6 manu… f        18    26 p     comp…
##  7 audi         a4      3.1  2008     6 auto… f        18    27 p     comp…
##  8 audi         a4 q…   1.8  1999     4 manu… 4        18    26 p     comp…
##  9 audi         a4 q…   1.8  1999     4 auto… 4        16    25 p     comp…
## 10 audi         a4 q…   2    2008     4 manu… 4        20    28 p     comp…
## # … with 224 more rows, and 1 more variable: engine <chr>

9.3.2 列名を変更

新しい列を作りたいわけではないが、列名を変えたい場合がある。このようなときは、rename(新しい列名 = 古い列名)を使えば良い。

mpg %>%
  rename(nen = year) # yearをnenに変更

## # A tibble: 234 x 11
##    manufacturer model displ   nen   cyl trans drv     cty   hwy fl    class
##    <chr>        <chr> <dbl> <int> <int> <chr> <chr> <int> <int> <chr> <chr>
##  1 audi         a4      1.8  1999     4 auto… f        18    29 p     comp…
##  2 audi         a4      1.8  1999     4 manu… f        21    29 p     comp…
##  3 audi         a4      2    2008     4 manu… f        20    31 p     comp…
##  4 audi         a4      2    2008     4 auto… f        21    30 p     comp…
##  5 audi         a4      2.8  1999     6 auto… f        16    26 p     comp…
##  6 audi         a4      2.8  1999     6 manu… f        18    26 p     comp…
##  7 audi         a4      3.1  2008     6 auto… f        18    27 p     comp…
##  8 audi         a4 q…   1.8  1999     4 manu… 4        18    26 p     comp…
##  9 audi         a4 q…   1.8  1999     4 auto… 4        16    25 p     comp…
## 10 audi         a4 q…   2    2008     4 manu… 4        20    28 p     comp…
## # … with 224 more rows
…
